Political ads on Facebook for the 2019 Belgian elections | bad to the code
…
Glad to hear the change works, but I guess that means the end of going to Romania for my dental work.

Analyzing the global figures a bit further and getting the total ads per funding entity:

df_imp %>% 
  count(funding_entity,
        sort = TRUE,
        name = "total ads")

## # A tibble: 940 x 2
##    funding_entity          `total ads`
##    <chr>                         <int>
##  1 <NA>                          16810
##  2 UNICEF Belgium                 1316
##  3 Vlaams Belang                  1083
##  4 PVDA                            955
##  5 Open Vld                        889
##  6 Greenpeace Belgium              784
##  7 Groen                           772
##  8 sp.a                            763
##  9 Nieuw-Vlaamse Alliantie         719
## 10 CD&V                            622
## # ... with 930 more rows
…
So we can safely say some of these ads were run during the election period, and it might be interesting to have a closer look at the ads without known funding entity, by looking at the page name they are financing.

df_imp %>% 
  filter(is.na(funding_entity)) %>% 
  group_by(page_name) %>% 
  summarise(count = n()) %>%
  select(page_name, count) %>% 
  arrange(desc(count))

## # A tibble: 3,396 x 2
##    page_name          count
##    <chr>              <int>
##  1 UNICEF Belgium       946
##  2 De Morgen            641
##  3 Kialo                484
##  4 Flamingos' Life      408
##  5 Peter Mertens        322
##  6 Òmnium Cultural      221
##  7 Greenpeace Belgium   198
##  8 Slush                181
##  9 Pela Case            140
## 10 Pride Palace         136
## # ... with 3,386 more rows
…
These seem like amazing amounts, but I have not yet taken into account the currencies…

df_imp %>% 
  count(currency,
        sort = TRUE,
        name = "total ads")

## # A tibble: 41 x 2
##    currency `total ads`
##    <chr>          <int>
##  1 EUR            32564
##  2 USD             4794
##  3 CAD              528
##  4 GBP              468
##  5 AUD              186
##  6 SEK              158
##  7 RUB               95
##  8 PLN               92
##  9 ILS               89
## 10 CHF               67
## # ... with 31 more rows
…
In order to estimate the amount spent per ad we will take the value in the middle of the spent range.

df_spent <- unnest_wider(df_imp, spend)
df_spent <- df_spent %>%
  mutate(spent = as.numeric(lower_bound)+(as.numeric(upper_bound)-as.numeric(lower_bound)+1)/2)
df_spent <- df_spent %>% 
  left_join(rates) %>% 
  mutate(euro = spent*Last)

df_spent %>% group_by(page_name) %>% 
  summarise(sum = sum(euro)) %>% 
  arrange(desc(sum))

## # A tibble: 4,152 x 2
##    page_name                sum
##    <chr>                  <dbl>
##  1 Vlaams Belang       1119900 
##  2 European Parliament  856800 
##  3 Tom Van Grieken      481050 
##  4 Kialo                404276.
##  5 Pela Case            372252.
##  6 N-VA                 353700 
##  7 Open Vld             245600 
##  8 sp.a                 194500 
##  9 Chilly's Bottles     181574.
## 10 UNICEF Belgium       176850 
## # ... with 4,142 more rows
…
df_reach <- df_spent %>%
  rename(lower_spent = lower_bound) %>% 
  rename(upper_spent = upper_bound) %>% 
  unnest_wider(impressions) %>% 
   mutate(impres = as.numeric(lower_bound)
          +(as.numeric(upper_bound)
            -as.numeric(lower_bound)+1)/2)

df_reach %>% filter(!is.na(impres)) %>% 
  group_by(page_name) %>% 
  summarise(sum = sum(impres)) %>% 
  arrange(desc(sum)) 

## # A tibble: 4,123 x 2
##    page_name                sum
##    <chr>                  <dbl>
##  1 Vlaams Belang       77906500
##  2 European Parliament 56080000
##  3 N-VA                47783500
##  4 sp.a                47145500
##  5 Kialo               44492000
##  6 Tom Van Grieken     43127500
##  7 Open Vld            31558000
##  8 European Commission 29422500
##  9 CD&V                23997000
## 10 PTB                 23460500
## # ... with 4,113 more rows
…
df_candidates <- df_candidates %>% 
  inner_join(candidates)

df_candidates  %>% 
  count(page_name,
        sort = TRUE,
        name = "total ads")

## # A tibble: 541 x 2
##    page_name             `total ads`
##    <chr>                       <int>
##  1 Peter Mertens                 844
##  2 Tom Van Grieken               354
##  3 Brecht Warnez                 336
##  4 Maurits Vande Reyde           283
##  5 Tom Vandendriessche           209
##  6 Jos D'Haese                   174
##  7 Georges-Louis Bouchez         144
##  8 Kathleen Van Brempt           144
##  9 Hendrik Bogaert               133
## 10 John Crombez                  119
## # ... with 531 more rows
…
df_candidates_f <- df_candidates_f %>% 
  inner_join(candidates)

## Joining, by = "key"

df_candidates_f %>% 
  count(page_name, funding_entity,
        sort = TRUE,
        name = "total ads")

## # A tibble: 43 x 3
##    page_name                                 funding_entity     `total ads`
##    <chr>                                     <chr>                    <int>
##  1 Be.One                                    Abou Jahjah Dyab            58
##  2 Groen West-Vlaanderen                     Sabels Jordy                21
##  3 sp.a Hemiksem - Waa zien H geire          Talboom Rodney              21
##  4 Didrik - 48e candidat à la Région de Bru~ Didrik de Schaetz~          18
##  5 Dirk Rochtus, N-VA Grobbendonk-Bouwel     Dirk Rochtus                16
##  6 Alexandra Philippe - DéFI                 Alexandra Philippe          11
##  7 Ieper2050                                 Sabels Jordy                 7
##  8 Martin Maréchal PS                        Martin Maréchal              7
##  9 Nicolas Stilmant - 2e effectif - liste C~ Nicolas Stilmant             7
## 10 Simon De Boeck - 1e schepen Gooik         De Boeck Simon               7
## # ... with 33 more rows
…
df_parties <- df_reach %>%
  filter(!page_name %in% df_candidates$page_name)
  
df_parties$name_party <- map(tolower(df_parties$page_name), extract_party)

df_parties %>%
  count(unlist(name_party),
        sort = TRUE,
        name = "total ads")

## # A tibble: 30 x 2
##    `unlist(name_party)` `total ads`
##    <chr>                      <int>
##  1 <NA>                       25115
##  2 open vld                     995
##  3 groen                        992
##  4 vlaams belang                986
##  5 sp.a                         944
##  6 cdh                          582
##  7 mr                           428
##  8 défi                         306
##  9 ps                           261
## 10 ecolo                        252
## # ... with 20 more rows
…
df <- df %>% 
  mutate(name_party = unlist(name_party)) %>% 
  filter(ad_creation_day > ymd("2018-12-31")) %>% 
  filter(ad_creation_day < ymd("2020-01-01"))

df %>% 
   count(name_party,
        sort = TRUE,
        name = "total_ads")

## # A tibble: 35 x 2
##    name_party    total_ads
##    <chr>             <int>
##  1 cd&v               2328
##  2 sp.a               1874
##  3 open vld           1861
##  4 vlaams belang      1841
##  5 n-va               1481
##  6 pvda               1371
##  7 groen              1172
##  8 mr                  989
##  9 cdh                 707
## 10 ps                  700
## # ... with 25 more rows
…
