tf_idf and beer reviews | bad to the code
…
##   language probability reliable proportion
## 1       en   0.9986772     TRUE          1
## 2      und   0.0000000    FALSE          0
## 3      und   0.0000000    FALSE          0

Since we want the least possible foreign words we need to only keep the text classified as English texts.

What other languages do we have?

input_text_language %>% 
  group_by(language_2, language_3) %>% 
  summarise(count = n()) %>% 
  arrange(desc(count))

## # A tibble: 32 x 3
## # Groups:   language_2 [11]
##    language_2 language_3  count
##    <chr>      <fct>       <int>
##  1 en         en         151823
##  2 es         es            112
##  3 en         <NA>           88
##  4 fr         fr             84
##  5 <NA>       es             31
##  6 pt         pt             20
##  7 es         <NA>            8
##  8 it         it              7
##  9 fi         fi              4
## 10 <NA>       <NA>            4
## # ... with 22 more rows
…
beer_type_word <- input_text_language %>%
  filter(beer_type %in% top_type$beer_type) %>% 
  unnest_tokens(word, texts) %>%
  count(beer_type, word, sort = TRUE) %>%
  ungroup() %>% 
  rename(count=n) %>%
  bind_tf_idf(word, beer_type, count)

beer_type_word %>%
  filter(beer_type =="Belgian Saison") %>% 
  select(-beer_type) %>% 
  arrange(desc(tf_idf))

## # A tibble: 24,557 x 5
##    word      count        tf   idf   tf_idf
##    <chr>     <int>     <dbl> <dbl>    <dbl>
##  1 fantome    2215 0.00164   0.357 0.000585
##  2 saisons    1277 0.000946  0.431 0.000408
##  3 dupont     1053 0.000780  0.431 0.000336
##  4 fantôme     418 0.000310  1.05  0.000325
##  5 fantomes    127 0.0000941 1.61  0.000151
##  6 dany        130 0.0000963 1.39  0.000134
##  7 blaugies     74 0.0000548 2.30  0.000126
##  8 foret        88 0.0000652 1.61  0.000105
##  9 printemps    61 0.0000452 2.30  0.000104
## 10 hiver        85 0.0000630 1.61  0.000101
## # ... with 24,547 more rows
…
## [1] 1349674

to all the words in the category (1.355.455 words).

For the Belgian strong dark ales the words are:

beer_type_word %>% 
  filter(beer_type == "Belgian Strong Dark Ale") %>%
  select(-beer_type) %>% 
  arrange(desc(tf_idf))

## # A tibble: 33,700 x 5
##    word      count        tf    idf    tf_idf
##    <chr>     <int>     <dbl>  <dbl>     <dbl>
##  1 mahogany   1224 0.000481  0.163  0.0000781
##  2 chocolate  3721 0.00146   0.0513 0.0000750
##  3 noel        326 0.000128  0.431  0.0000552
##  4 raisin     2510 0.000986  0.0513 0.0000506
##  5 nocturnum   153 0.0000601 0.799  0.0000480
##  6 anker       132 0.0000519 0.916  0.0000475
##  7 prunes     1141 0.000448  0.105  0.0000472
##  8 figs       2241 0.000880  0.0513 0.0000452
##  9 cherries   2178 0.000856  0.0513 0.0000439
## 10 plum       2166 0.000851  0.0513 0.0000436
## # ... with 33,690 more rows
…
