r u bot or not bot? | bad to the code
…
#saveRDS(data, "~/R/blogs/content/post/data/20190927/data_friends_of_friends.rds")

There are almost 3 million links between friends and friend of friends. And a bit more than two million links between followers and their friends. The network needs to be limited to be plotted.

I’ll only include friends of kd in the network of friends of friends and limit the number of accounts and only take accounts with the highest probabilities of being a bot.

data <- data_friends_of_friends %>% 
  filter(user_id %in% friends$user_id) #only include direct friends

data %>% group_by(user_id) %>% 
  summarise(count = n()) %>% 
  arrange(desc(count))

## # A tibble: 2,233 x 2
##    user_id  count
##    <chr>    <int>
##  1 14700316  1231
##  2 807095     996
##  3 69231187   994
##  4 18213483   979
##  5 16153562   923
##  6 14159148   907
##  7 1652541    892
##  8 5402612    892
##  9 742143     889
## 10 17839398   887
## # ... with 2,223 more rows
…
