…
Per federal rep the daily Wikipedia article views per language.

Who got the most hits in 2019?

views %>% select(article, date, views) %>% 
  filter(year(date)== 2019) %>% 
  group_by(article) %>% 
  summarise(sum = sum(views)) %>% 
  arrange(desc(sum))

## # A tibble: 161 x 2
##    article                 sum
##    <chr>                 <dbl>
##  1 Charles_Michel       300856
##  2 Maggie_De_Block      184954
##  3 Elio_Di_Rupo         148396
##  4 Tom_Van_Grieken      133757
##  5 Sophie_Wilmès         90700
##  6 Dries_Van_Langenhove  86786
##  7 Didier_Reynders       71443
##  8 Theo_Francken         70725
##  9 Jan_Jambon            65852
## 10 Goedele_Liekens       50202
## # ... with 151 more rows
…
So Mr. Michel wins. Who have the most % of hits on their English article?

views %>% select(article, date, views, language) %>% 
  pivot_wider(values_from = views, names_from = language, values_fill = list(views= 0)) %>% 
  filter(year(date)== 2019) %>%
  select(-date) %>% 
  group_by(article) %>% 
  summarise_all(funs(sum)) %>% 
  mutate(sum = (fr + nl + en)) %>% 
  mutate(prtc_en = (en/sum)) %>% 
  mutate(prtc = scales::percent(en/sum)) %>% 
  arrange(desc(prtc_en)) %>% 
  select(-prtc_en)

## # A tibble: 161 x 6
##    article              fr    nl     en    sum prtc 
##    <chr>             <dbl> <dbl>  <dbl>  <dbl> <chr>
##  1 Roberto_D'Amico       0   142    337    479 70.4%
##  2 Maggie_De_Block   25614 40197 119143 184954 64.4%
##  3 Charles_Michel    91434 47490 161932 300856 53.8%
##  4 Elio_Di_Rupo      50809 21360  76227 148396 51.4%
##  5 Darya_Safai        1703  6349   7051  15103 46.7%
##  6 Didier_Reynders   28838 19262  23343  71443 32.7%
##  7 Alexander_De_Croo  6379 14729   7769  28877 26.9%
##  8 Sophie_Wilmès     49047 17879  23774  90700 26.2%
##  9 Peter_Mertens      5065 14895   6645  26605 25.0%
## 10 Vanessa_Matz        916   272    384   1572 24.4%
## # ... with 151 more rows
…
So the special dates from this graph seem to be election day, the election of Charles Michel and Mrs. Wilmès as first woman Belgian PM.

Let’s look at the top 10 on the election date:

views %>% select(article, date, views, language) %>%
  mutate(date = ymd(date)) %>% 
  filter(year(date) > 2018) %>% 
  group_by(article, date) %>% 
  summarise(sum = sum(views)) %>% 
  filter(date == ymd("2019-05-26")) %>% 
  arrange(desc(sum))

## # A tibble: 109 x 3
## # Groups:   article [109]
##    article              date         sum
##    <chr>                <date>     <dbl>
##  1 Tom_Van_Grieken      2019-05-26 29467
##  2 Dries_Van_Langenhove 2019-05-26  7774
##  3 Zakia_Khattabi       2019-05-26  4697
##  4 Charles_Michel       2019-05-26  3614
##  5 Raoul_Hedebouw       2019-05-26  2941
##  6 Maggie_De_Block      2019-05-26  2868
##  7 Peter_Mertens        2019-05-26  2849
##  8 Elio_Di_Rupo         2019-05-26  2732
##  9 Theo_Francken        2019-05-26  2366
## 10 John_Crombez         2019-05-26  2112
## # ... with 99 more rows

That is a lot of page views for Mr. Van Grieken.

Top pageviews per day in 2019 are:

views %>% select(article, date, views, language) %>%
  mutate(date = ymd(date)) %>% 
  filter(year(date) > 2018) %>% 
  group_by(article, date) %>% 
  summarise(sum = sum(views)) %>% 
  arrange(desc(sum))

## # A tibble: 38,584 x 3
## # Groups:   article [161]
##    article              date         sum
##    <chr>                <date>     <dbl>
##  1 Tom_Van_Grieken      2019-05-26 29467
##  2 Sophie_Wilmès        2019-10-27 24084
##  3 Tom_Van_Grieken      2019-05-27 23873
##  4 Charles_Michel       2019-07-02 23262
##  5 Charles_Michel       2019-07-03 20875
##  6 Sophie_Wilmès        2019-10-28 19794
##  7 Sophie_Wilmès        2019-10-29 10687
##  8 Tom_Van_Grieken      2019-05-29  9491
##  9 Sophie_Wilmès        2019-10-26  8047
## 10 Dries_Van_Langenhove 2019-05-26  7774
## # ... with 38,574 more rows
…
network_out

The graph suffers a bit from the fur ball effect and might be in need of some further tlc, but the results seem coherent enough. Here are the most connected pages:

nodesDF$id <- as.numeric(rownames(nodesDF)) - 1
connections_df <-
  merge(connections,
        nodesDF,
        by.x = "to",
        by.y = "id",
        all = TRUE)
to_count_df <- count(connections_df, name)
arrange(to_count_df, desc(n))

## # A tibble: 161 x 2
##    name                       n
##    <fct>                  <int>
##  1 Jan_Jambon                20
##  2 Elio_Di_Rupo              18
##  3 Charles_Michel            15
##  4 Zuhal_Demir               12
##  5 Koen_Geens                11
##  6 Pieter_De_Crem            11
##  7 Servais_Verherstraeten    10
##  8 Wouter_Beke               10
##  9 Peter_De_Roover            9
## 10 Alexander_De_Croo          8
## # ... with 151 more rows
…
