…
The last three words in the review are probably inserted automatically; the user name, the number of characters, and month of the review. So we can calculate the number of reviews per user and then filter out these last three words too.

users <- input_cleaned %>% 
  mutate(n_words = str_count(comments, '\\w+')) %>% 
  mutate(user= word(comments,n_words-1)) %>% #taking all but the last three words
  select(user, n_words, comments)

users %>% group_by(user) %>% 
  summarise(count = n()) %>% 
  arrange(desc(count))

## # A tibble: 14,595 x 2
##    user          count
##    <chr>         <int>
##  1 desint          687
##  2 phylca          498
##  3 blackhaddock    430
##  4 metter          398
##  5 thierrynantes   397
##  6 uclabrewn       392
##  7 sammy           388
##  8 beerchitect     387
##  9 superspak       368
## 10 paterlodie      367
## # ... with 14,585 more rows
…
It might be interesting to look at the top 10% of comments per topic score. And analyse the beers and beer types of these topic. For instance for topic 1:

df_beer_type %>% 
  select('1', beer_name, brewery, beer_type, review) %>% 
  arrange(desc(`1`)) %>% 
  filter(ntile(`1`, 100) > 90)%>% group_by(beer_type) %>% 
  summarise(sum = sum(`1`)) %>% 
  arrange(desc(sum))

## # A tibble: 60 x 2
##    beer_type                 sum
##    <chr>                   <dbl>
##  1 Belgian Tripel           902.
##  2 Belgian Strong Pale Ale  889.
##  3 Belgian Gueuze           641.
##  4 Belgian Fruit Lambic     637.
##  5 Belgian Pale Ale         493.
##  6 Belgian Saison           428.
##  7 Belgian Strong Dark Ale  304.
##  8 "Belgian Blonde Ale "    261.
##  9 Belgian Dubbel           214.
## 10 Belgian Witbier          163.
## # ... with 50 more rows
…
df_top <- df_top_topic %>% 
  select(-data) %>% 
  unnest(c=("top"))

saveRDS(df_top, "./data/20191212/temp_mean.rds")

df_top <- readRDS("./data/20191212/temp_mean.rds")

df_top %>% group_by(topic, beer_type) %>% 
  summarise(topic_score = sum(value)) %>% 
  filter(topic == 12) %>% 
  arrange(desc(topic_score))

## # A tibble: 69 x 3
## # Groups:   topic [1]
##    topic beer_type                topic_score
##    <chr> <chr>                          <dbl>
##  1 12    Belgian Strong Pale Ale         818.
##  2 12    European Pale Lager             788.
##  3 12    Belgian Tripel                  623.
##  4 12    Belgian Strong Dark Ale         534.
##  5 12    Belgian Pale Ale                477.
##  6 12    "Belgian Blonde Ale "           450.
##  7 12    Belgian Dubbel                  363.
##  8 12    Belgian Witbier                 336.
##  9 12    Belgian IPA                     298.
## 10 12    Belgian Quadrupel (Quad)        259.
## # ... with 59 more rows
…
