…
tweets <- map2_df(twitter_users$screen_name,twitter_users$ln_fn, 
             possibly(get_handle_tweets, otherwise = NULL))
dim(tweets)

## [1] 0 0

Now might be a good time to talk about rate limits. We are limited to go 3200 tweets in the past per handle, but we have also temporary limits to the calls we can do with the API.

limits <- rate_limits()
limits

## # A tibble: 149 x 7
##    query limit remaining reset reset_at            timestamp          
##    <chr> <int>     <int> <tim> <dttm>              <dttm>             
##  1 list~    15        15 15.0~ 2019-05-05 14:52:30 2019-05-05 14:37:28
##  2 list~    75        75 15.0~ 2019-05-05 14:52:30 2019-05-05 14:37:28
##  3 list~    15        15 15.0~ 2019-05-05 14:52:30 2019-05-05 14:37:28
##  4 list~   900       900 15.0~ 2019-05-05 14:52:30 2019-05-05 14:37:28
##  5 list~    15        15 15.0~ 2019-05-05 14:52:30 2019-05-05 14:37:28
##  6 list~    75        75 15.0~ 2019-05-05 14:52:30 2019-05-05 14:37:28
##  7 list~    15        15 15.0~ 2019-05-05 14:52:30 2019-05-05 14:37:28
##  8 list~   180       180 15.0~ 2019-05-05 14:52:30 2019-05-05 14:37:28
##  9 list~    15        15 15.0~ 2019-05-05 14:52:30 2019-05-05 14:37:28
## 10 list~   900       900 15.0~ 2019-05-05 14:52:30 2019-05-05 14:37:28
## # ... with 139 more rows, and 1 more variable: app <chr>
…
