Belgian parliamentarians tweets | bad to the code
…
## Joining, by = "ln_fn"

We can get the language the members use the most.

languages_used

## # A tibble: 27 x 2
##    ln_fn              language  
##    <chr>              <chr>     
##  1 Bacquelaine Daniel Frans     
##  2 Claerhout Sarah    Nederlands
##  3 Crusnière Stéphane Frans     
##  4 De Block Maggie    Nederlands
##  5 De Crem Pieter     Nederlands
##  6 De Croo Alexander  Nederlands
##  7 Demeyer Willy      Frans     
##  8 Ducarme Denis      Frans     
##  9 Flahaut André      Frans     
## 10 Fremault Céline    Frans     
## # ... with 17 more rows
…
